%YAML 1.1
%TAG !u! tag:unity3d.com,2011:
--- !u!1001 &4465306245962409059
PrefabInstance:
  m_ObjectHideFlags: 0
  serializedVersion: 2
  m_Modification:
    m_TransformParent: {fileID: 0}
    m_Modifications:
    - target: {fileID: 5065498837143557752, guid: 34b0b0077629458488f8fdbc5de0af85, type: 3}
      propertyPath: unitTypes.Array.size
      value: 1
      objectReference: {fileID: 0}
    - target: {fileID: 5065498837143557752, guid: 34b0b0077629458488f8fdbc5de0af85, type: 3}
      propertyPath: unitTypes.Array.data[0]
      value: 2
      objectReference: {fileID: 0}
    - target: {fileID: 5065498837143557753, guid: 34b0b0077629458488f8fdbc5de0af85, type: 3}
      propertyPath: m_RootOrder
      value: 0
      objectReference: {fileID: 0}
    - target: {fileID: 5065498837143557753, guid: 34b0b0077629458488f8fdbc5de0af85, type: 3}
      propertyPath: m_LocalPosition.x
      value: 0
      objectReference: {fileID: 0}
    - target: {fileID: 5065498837143557753, guid: 34b0b0077629458488f8fdbc5de0af85, type: 3}
      propertyPath: m_LocalPosition.y
      value: 0
      objectReference: {fileID: 0}
    - target: {fileID: 5065498837143557753, guid: 34b0b0077629458488f8fdbc5de0af85, type: 3}
      propertyPath: m_LocalPosition.z
      value: 0
      objectReference: {fileID: 0}
    - target: {fileID: 5065498837143557753, guid: 34b0b0077629458488f8fdbc5de0af85, type: 3}
      propertyPath: m_LocalRotation.w
      value: 1
      objectReference: {fileID: 0}
    - target: {fileID: 5065498837143557753, guid: 34b0b0077629458488f8fdbc5de0af85, type: 3}
      propertyPath: m_LocalRotation.x
      value: 0
      objectReference: {fileID: 0}
    - target: {fileID: 5065498837143557753, guid: 34b0b0077629458488f8fdbc5de0af85, type: 3}
      propertyPath: m_LocalRotation.y
      value: 0
      objectReference: {fileID: 0}
    - target: {fileID: 5065498837143557753, guid: 34b0b0077629458488f8fdbc5de0af85, type: 3}
      propertyPath: m_LocalRotation.z
      value: 0
      objectReference: {fileID: 0}
    - target: {fileID: 5065498837143557753, guid: 34b0b0077629458488f8fdbc5de0af85, type: 3}
      propertyPath: m_LocalEulerAnglesHint.x
      value: 0
      objectReference: {fileID: 0}
    - target: {fileID: 5065498837143557753, guid: 34b0b0077629458488f8fdbc5de0af85, type: 3}
      propertyPath: m_LocalEulerAnglesHint.y
      value: 0
      objectReference: {fileID: 0}
    - target: {fileID: 5065498837143557753, guid: 34b0b0077629458488f8fdbc5de0af85, type: 3}
      propertyPath: m_LocalEulerAnglesHint.z
      value: 0
      objectReference: {fileID: 0}
    - target: {fileID: 5065498837143557754, guid: 34b0b0077629458488f8fdbc5de0af85, type: 3}
      propertyPath: m_Name
      value: BasketBlue
      objectReference: {fileID: 0}
    - target: {fileID: 5065498838065743909, guid: 34b0b0077629458488f8fdbc5de0af85, type: 3}
      propertyPath: m_Color.b
      value: 1
      objectReference: {fileID: 0}
    - target: {fileID: 5065498838065743909, guid: 34b0b0077629458488f8fdbc5de0af85, type: 3}
      propertyPath: m_Color.g
      value: 0
      objectReference: {fileID: 0}
    - target: {fileID: 5065498838065743909, guid: 34b0b0077629458488f8fdbc5de0af85, type: 3}
      propertyPath: m_Color.r
      value: 0.20130968
      objectReference: {fileID: 0}
    m_RemovedComponents: []
  m_SourcePrefab: {fileID: 100100000, guid: 34b0b0077629458488f8fdbc5de0af85, type: 3}
