%YAML 1.1
%TAG !u! tag:unity3d.com,2011:
--- !u!1 &9163190570156712434
GameObject:
  m_ObjectHideFlags: 0
  m_CorrespondingSourceObject: {fileID: 0}
  m_PrefabInstance: {fileID: 0}
  m_PrefabAsset: {fileID: 0}
  serializedVersion: 6
  m_Component:
  - component: {fileID: 8907961447157271045}
  - component: {fileID: 5521878338054137472}
  m_Layer: 11
  m_Name: Square (1)
  m_TagString: Untagged
  m_Icon: {fileID: 0}
  m_NavMeshLayer: 0
  m_StaticEditorFlags: 0
  m_IsActive: 1
--- !u!4 &8907961447157271045
Transform:
  m_ObjectHideFlags: 0
  m_CorrespondingSourceObject: {fileID: 0}
  m_PrefabInstance: {fileID: 0}
  m_PrefabAsset: {fileID: 0}
  m_GameObject: {fileID: 9163190570156712434}
  m_LocalRotation: {x: -0, y: -0, z: -0, w: 1}
  m_LocalPosition: {x: 0.247, y: 0, z: 0}
  m_LocalScale: {x: 0.5, y: 1, z: 1}
  m_Children: []
  m_Father: {fileID: 7721890879489089642}
  m_RootOrder: 1
  m_LocalEulerAnglesHint: {x: 0, y: 0, z: 0}
--- !u!212 &5521878338054137472
SpriteRenderer:
  m_ObjectHideFlags: 0
  m_CorrespondingSourceObject: {fileID: 0}
  m_PrefabInstance: {fileID: 0}
  m_PrefabAsset: {fileID: 0}
  m_GameObject: {fileID: 9163190570156712434}
  m_Enabled: 1
  m_CastShadows: 0
  m_ReceiveShadows: 0
  m_DynamicOccludee: 1
  m_MotionVectors: 1
  m_LightProbeUsage: 1
  m_ReflectionProbeUsage: 1
  m_RayTracingMode: 0
  m_RayTraceProcedural: 0
  m_RenderingLayerMask: 1
  m_RendererPriority: 0
  m_Materials:
  - {fileID: 10754, guid: 0000000000000000f000000000000000, type: 0}
  m_StaticBatchInfo:
    firstSubMesh: 0
    subMeshCount: 0
  m_StaticBatchRoot: {fileID: 0}
  m_ProbeAnchor: {fileID: 0}
  m_LightProbeVolumeOverride: {fileID: 0}
  m_ScaleInLightmap: 1
  m_ReceiveGI: 1
  m_PreserveUVs: 0
  m_IgnoreNormalsForChartDetection: 0
  m_ImportantGI: 0
  m_StitchLightmapSeams: 1
  m_SelectedEditorRenderState: 0
  m_MinimumChartSize: 4
  m_AutoUVMaxDistance: 0.5
  m_AutoUVMaxAngle: 89
  m_LightmapParameters: {fileID: 0}
  m_SortingLayerID: 0
  m_SortingLayer: 0
  m_SortingOrder: 0
  m_Sprite: {fileID: 7482667652216324306, guid: db750325989564987a34393247d883b4, type: 3}
  m_Color: {r: 1, g: 0.074307956, b: 0, a: 1}
  m_FlipX: 0
  m_FlipY: 0
  m_DrawMode: 0
  m_Size: {x: 1, y: 1}
  m_AdaptiveModeThreshold: 0.5
  m_SpriteTileMode: 0
  m_WasSpriteAssigned: 1
  m_MaskInteraction: 0
  m_SpriteSortPoint: 0
--- !u!1001 &3271282994188269075
PrefabInstance:
  m_ObjectHideFlags: 0
  serializedVersion: 2
  m_Modification:
    m_TransformParent: {fileID: 0}
    m_Modifications:
    - target: {fileID: 5065498837143557752, guid: 34b0b0077629458488f8fdbc5de0af85, type: 3}
      propertyPath: unitTypes.Array.size
      value: 2
      objectReference: {fileID: 0}
    - target: {fileID: 5065498837143557752, guid: 34b0b0077629458488f8fdbc5de0af85, type: 3}
      propertyPath: unitTypes.Array.data[0]
      value: 1
      objectReference: {fileID: 0}
    - target: {fileID: 5065498837143557752, guid: 34b0b0077629458488f8fdbc5de0af85, type: 3}
      propertyPath: unitTypes.Array.data[1]
      value: 2
      objectReference: {fileID: 0}
    - target: {fileID: 5065498837143557753, guid: 34b0b0077629458488f8fdbc5de0af85, type: 3}
      propertyPath: m_RootOrder
      value: 0
      objectReference: {fileID: 0}
    - target: {fileID: 5065498837143557753, guid: 34b0b0077629458488f8fdbc5de0af85, type: 3}
      propertyPath: m_LocalPosition.x
      value: 0
      objectReference: {fileID: 0}
    - target: {fileID: 5065498837143557753, guid: 34b0b0077629458488f8fdbc5de0af85, type: 3}
      propertyPath: m_LocalPosition.y
      value: 0
      objectReference: {fileID: 0}
    - target: {fileID: 5065498837143557753, guid: 34b0b0077629458488f8fdbc5de0af85, type: 3}
      propertyPath: m_LocalPosition.z
      value: 0
      objectReference: {fileID: 0}
    - target: {fileID: 5065498837143557753, guid: 34b0b0077629458488f8fdbc5de0af85, type: 3}
      propertyPath: m_LocalRotation.w
      value: 1
      objectReference: {fileID: 0}
    - target: {fileID: 5065498837143557753, guid: 34b0b0077629458488f8fdbc5de0af85, type: 3}
      propertyPath: m_LocalRotation.x
      value: 0
      objectReference: {fileID: 0}
    - target: {fileID: 5065498837143557753, guid: 34b0b0077629458488f8fdbc5de0af85, type: 3}
      propertyPath: m_LocalRotation.y
      value: 0
      objectReference: {fileID: 0}
    - target: {fileID: 5065498837143557753, guid: 34b0b0077629458488f8fdbc5de0af85, type: 3}
      propertyPath: m_LocalRotation.z
      value: 0
      objectReference: {fileID: 0}
    - target: {fileID: 5065498837143557753, guid: 34b0b0077629458488f8fdbc5de0af85, type: 3}
      propertyPath: m_LocalEulerAnglesHint.x
      value: 0
      objectReference: {fileID: 0}
    - target: {fileID: 5065498837143557753, guid: 34b0b0077629458488f8fdbc5de0af85, type: 3}
      propertyPath: m_LocalEulerAnglesHint.y
      value: 0
      objectReference: {fileID: 0}
    - target: {fileID: 5065498837143557753, guid: 34b0b0077629458488f8fdbc5de0af85, type: 3}
      propertyPath: m_LocalEulerAnglesHint.z
      value: 0
      objectReference: {fileID: 0}
    - target: {fileID: 5065498837143557754, guid: 34b0b0077629458488f8fdbc5de0af85, type: 3}
      propertyPath: m_Name
      value: BasketBlueRed
      objectReference: {fileID: 0}
    - target: {fileID: 5065498838065743909, guid: 34b0b0077629458488f8fdbc5de0af85, type: 3}
      propertyPath: m_Color.g
      value: 0
      objectReference: {fileID: 0}
    - target: {fileID: 5065498838065743909, guid: 34b0b0077629458488f8fdbc5de0af85, type: 3}
      propertyPath: m_Color.r
      value: 0.17001867
      objectReference: {fileID: 0}
    - target: {fileID: 5065498838065743910, guid: 34b0b0077629458488f8fdbc5de0af85, type: 3}
      propertyPath: m_LocalScale.x
      value: 0.5
      objectReference: {fileID: 0}
    - target: {fileID: 5065498838065743910, guid: 34b0b0077629458488f8fdbc5de0af85, type: 3}
      propertyPath: m_LocalPosition.x
      value: -0.243
      objectReference: {fileID: 0}
    m_RemovedComponents: []
  m_SourcePrefab: {fileID: 100100000, guid: 34b0b0077629458488f8fdbc5de0af85, type: 3}
--- !u!4 &7721890879489089642 stripped
Transform:
  m_CorrespondingSourceObject: {fileID: 5065498837143557753, guid: 34b0b0077629458488f8fdbc5de0af85, type: 3}
  m_PrefabInstance: {fileID: 3271282994188269075}
  m_PrefabAsset: {fileID: 0}
